^D:\USERS\USER-PC\DOCUMENTS\MAGSHIMIM2\PROGRAMMING\HW2_YOTAM_RAN\2\COURSE.CPP
/c /ZI /nologo /Wall /WX- /sdl /Od /Oy- /D _CRT_SECURE_NO_WARNINGS /D _MBCS /Gm /EHsc /RTC1 /MDd /GS /fp:precise /Zc:wchar_t /Zc:forScope /Fo"DEBUG\\" /Fd"DEBUG\VC120.PDB" /Gd /TP /analyze- D:\USERS\USER-PC\DOCUMENTS\MAGSHIMIM2\PROGRAMMING\HW2_YOTAM_RAN\2\COURSE.CPP
^D:\USERS\USER-PC\DOCUMENTS\MAGSHIMIM2\PROGRAMMING\HW2_YOTAM_RAN\2\SOURCE.CPP
/c /ZI /nologo /Wall /WX- /sdl /Od /Oy- /D _CRT_SECURE_NO_WARNINGS /D _MBCS /Gm /EHsc /RTC1 /MDd /GS /fp:precise /Zc:wchar_t /Zc:forScope /Fo"DEBUG\\" /Fd"DEBUG\VC120.PDB" /Gd /TP /analyze- D:\USERS\USER-PC\DOCUMENTS\MAGSHIMIM2\PROGRAMMING\HW2_YOTAM_RAN\2\SOURCE.CPP
^D:\USERS\USER-PC\DOCUMENTS\MAGSHIMIM2\PROGRAMMING\HW2_YOTAM_RAN\2\STUDENT.CPP
/c /ZI /nologo /Wall /WX- /sdl /Od /Oy- /D _CRT_SECURE_NO_WARNINGS /D _MBCS /Gm /EHsc /RTC1 /MDd /GS /fp:precise /Zc:wchar_t /Zc:forScope /Fo"DEBUG\\" /Fd"DEBUG\VC120.PDB" /Gd /TP /analyze- D:\USERS\USER-PC\DOCUMENTS\MAGSHIMIM2\PROGRAMMING\HW2_YOTAM_RAN\2\STUDENT.CPP
^D:\USERS\USER-PC\DOCUMENTS\MAGSHIMIM2\PROGRAMMING\HW2_YOTAM_RAN\2\SCHOOL.CPP
/c /ZI /nologo /Wall /WX- /sdl /Od /Oy- /D _CRT_SECURE_NO_WARNINGS /D _MBCS /Gm /EHsc /RTC1 /MDd /GS /fp:precise /Zc:wchar_t /Zc:forScope /Fo"DEBUG\\" /Fd"DEBUG\VC120.PDB" /Gd /TP /analyze- D:\USERS\USER-PC\DOCUMENTS\MAGSHIMIM2\PROGRAMMING\HW2_YOTAM_RAN\2\SCHOOL.CPP
