^D:\USERS\USER-PC\DOCUMENTS\MAGSHIMIM2\PROGRAMMING\HW2_YOTAM_RAN\2\DEBUG\COURSE.OBJ|D:\USERS\USER-PC\DOCUMENTS\MAGSHIMIM2\PROGRAMMING\HW2_YOTAM_RAN\2\DEBUG\SCHOOL.OBJ|D:\USERS\USER-PC\DOCUMENTS\MAGSHIMIM2\PROGRAMMING\HW2_YOTAM_RAN\2\DEBUG\STUDENT.OBJ
D:\USERS\USER-PC\DOCUMENTS\MAGSHIMIM2\PROGRAMMING\HW2_YOTAM_RAN\DEBUG\2.ILK
D:\USERS\USER-PC\DOCUMENTS\MAGSHIMIM2\PROGRAMMING\HW2_YOTAM_RAN\DEBUG\2.EXE
D:\USERS\USER-PC\DOCUMENTS\MAGSHIMIM2\PROGRAMMING\HW2_YOTAM_RAN\DEBUG\2.PDB
